task2/f1_fsm.vcd
$version Generated by VerilatedVcd $end
$date Thu Nov  2 22:09:26 2023 $end
$timescale 1ps $end

 $scope module TOP $end
  $var wire  1 # clk $end
  $var wire  8 ' data_out [7:0] $end
  $var wire  1 $ en $end
  $var wire  1 % rst $end
  $var wire  1 & trigger $end
  $scope module f1_fsm $end
   $var wire  1 # clk $end
   $var wire 32 ( current_state [31:0] $end
   $var wire  8 ' data_out [7:0] $end
   $var wire  1 $ en $end
   $var wire 32 ) next_state [31:0] $end
   $var wire  1 % rst $end
   $var wire  1 & trigger $end
  $upscope $end
 $upscope $end
$enddefinitions $end


#0
1#
1$
0%
1&
b00000000 '
b00000000000000000000000000000000 (
b00000000000000000000000000000000 )
#1
0#
b00000000000000000000000000000001 )
#2
1#
0$
1%
b00000001 '
b00000000000000000000000000000001 (
b00000000000000000000000000000010 )
#3
0#
b00000000 '
b00000000000000000000000000000000 (
b00000000000000000000000000000000 )
#4
1#
#5
0#
#6
1#
0%
#7
0#
#8
1#
#9
0#
#10
1#
#11
0#
#12
1#
#13
0#
#14
1#
#15
0#
#16
1#
#17
0#
#18
1#
#19
0#
#20
1#
#21
0#
#22
1#
#23
0#
#24
1#
#25
0#
#26
1#
#27
0#
#28
1#
#29
0#
#30
1#
#31
0#
#32
1#
#33
0#
#34
1#
#35
0#
#36
1#
#37
0#
#38
1#
#39
0#
#40
1#
#41
0#
#42
1#
#43
0#
#44
1#
#45
0#
#46
1#
#47
0#
#48
1#
#49
0#
#50
1#
#51
0#
#52
1#
#53
0#
#54
1#
#55
0#
#56
1#
#57
0#
#58
1#
#59
0#
#60
1#
#61
0#
#62
1#
#63
0#
#64
1#
#65
0#
#66
1#
#67
0#
#68
1#
#69
0#
#70
1#
#71
0#
#72
1#
#73
0#
#74
1#
#75
0#
#76
1#
#77
0#
#78
1#
#79
0#
#80
1#
#81
0#
#82
1#
1$
#83
0#
b00000000000000000000000000000001 )
#84
1#
0$
b00000001 '
b00000000000000000000000000000001 (
b00000000000000000000000000000010 )
#85
0#
b00000000000000000000000000000001 )
